\relax 
\providecommand\hyper@newdestlabel[2]{}
\providecommand\HyperFirstAtBeginDocument{\AtBeginDocument}
\HyperFirstAtBeginDocument{\ifx\hyper@anchor\@undefined
\global\let\oldcontentsline\contentsline
\gdef\contentsline#1#2#3#4{\oldcontentsline{#1}{#2}{#3}}
\global\let\oldnewlabel\newlabel
\gdef\newlabel#1#2{\newlabelxx{#1}#2}
\gdef\newlabelxx#1#2#3#4#5#6{\oldnewlabel{#1}{{#2}{#3}}}
\AtEndDocument{\ifx\hyper@anchor\@undefined
\let\contentsline\oldcontentsline
\let\newlabel\oldnewlabel
\fi}
\fi}
\global\let\hyper@last\relax 
\gdef\HyperFirstAtBeginDocument#1{#1}
\providecommand*\HyPL@Entry[1]{}
\HyPL@Entry{0<</S/a>>}
\providecommand \oddpage@label [2]{}
\HyPL@Entry{2<</S/r>>}
\HyPL@Entry{4<</S/D>>}
\@writefile{toc}{\contentsline {chapter}{\numberline {1}Data Structure Index}{1}{chapter.1}}
\@writefile{lof}{\addvspace {10\p@ }}
\@writefile{lot}{\addvspace {10\p@ }}
\@writefile{toc}{\contentsline {section}{\numberline {1.1}Data Structures}{1}{section.1.1}}
\@writefile{toc}{\contentsline {chapter}{\numberline {2}File Index}{3}{chapter.2}}
\@writefile{lof}{\addvspace {10\p@ }}
\@writefile{lot}{\addvspace {10\p@ }}
\@writefile{toc}{\contentsline {section}{\numberline {2.1}File List}{3}{section.2.1}}
\@writefile{toc}{\contentsline {chapter}{\numberline {3}Data Structure Documentation}{5}{chapter.3}}
\@writefile{lof}{\addvspace {10\p@ }}
\@writefile{lot}{\addvspace {10\p@ }}
\@writefile{toc}{\contentsline {section}{\numberline {3.1}lista Struct Reference}{5}{section.3.1}}
\newlabel{structlista}{{3.1}{5}{lista Struct Reference}{section.3.1}{}}
\newlabel{structlista_aea288b12e95a0a1aa251ead03fc806da}{{3.1}{5}{Data Fields}{section*.2}{}}
\newlabel{structlista_ad284abd84e0c4b2a732467ecf39a881a}{{3.1}{5}{Data Fields}{section*.2}{}}
\@writefile{toc}{\contentsline {section}{\numberline {3.2}posicion Struct Reference}{5}{section.3.2}}
\newlabel{structposicion}{{3.2}{5}{posicion Struct Reference}{section.3.2}{}}
\newlabel{structposicion_a4dc27d38d56fc7b0c7bafff32e06196f}{{3.2}{5}{Data Fields}{section*.3}{}}
\newlabel{structposicion_a32c172d7aa6971b12668e5b8f2015895}{{3.2}{5}{Data Fields}{section*.3}{}}
\newlabel{structposicion_a3b9a7bdc4ce9c85921ae9c0a92aa7abe}{{3.2}{5}{Data Fields}{section*.3}{}}
\@writefile{toc}{\contentsline {subsection}{\numberline {3.2.1}Detailed Description}{5}{subsection.3.2.1}}
\@writefile{toc}{\contentsline {chapter}{\numberline {4}File Documentation}{7}{chapter.4}}
\@writefile{lof}{\addvspace {10\p@ }}
\@writefile{lot}{\addvspace {10\p@ }}
\@writefile{toc}{\contentsline {section}{\numberline {4.1}lista.\discretionary {\unhbox \voidb@x \hbox {\relax \fontsize  {7}{8}\selectfont  $\leftarrow \joinrel  \rhook $}}{}{}h File Reference}{7}{section.4.1}}
\newlabel{lista_8h}{{4.1}{7}{lista.\+h File Reference}{section.4.1}{}}
\newlabel{lista_8h_a53f37174c8dc5656aa48d28a60762aed}{{4.1}{7}{Functions}{section*.5}{}}
\@writefile{toc}{\contentsline {subsection}{\numberline {4.1.1}Detailed Description}{8}{subsection.4.1.1}}
\@writefile{toc}{\contentsline {subsection}{\numberline {4.1.2}Function Documentation}{8}{subsection.4.1.2}}
\newlabel{lista_8h_a445ef21e6f10076c7379bb40adac6187}{{4.1.2}{8}{Function Documentation}{subsection.4.1.2}{}}
\@writefile{toc}{\contentsline {subsubsection}{\numberline {4.1.2.1}agregar\discretionary {\unhbox \voidb@x \hbox {\relax \fontsize  {7}{8}\selectfont  $\leftarrow \joinrel  \rhook $}}{}{}\_\discretionary {\unhbox \voidb@x \hbox {\relax \fontsize  {7}{8}\selectfont  $\leftarrow \joinrel  \rhook $}}{}{}elemento()}{8}{subsubsection.4.1.2.1}}
\newlabel{lista_8h_a998ed871fc611fce80bd6d6ec764e984}{{4.1.2.1}{8}{\texorpdfstring {agregar\+\_\+elemento()}{agregar\_elemento()}}{subsubsection.4.1.2.1}{}}
\@writefile{toc}{\contentsline {subsubsection}{\numberline {4.1.2.2}buscar\discretionary {\unhbox \voidb@x \hbox {\relax \fontsize  {7}{8}\selectfont  $\leftarrow \joinrel  \rhook $}}{}{}\_\discretionary {\unhbox \voidb@x \hbox {\relax \fontsize  {7}{8}\selectfont  $\leftarrow \joinrel  \rhook $}}{}{}dato()}{8}{subsubsection.4.1.2.2}}
\newlabel{lista_8h_a1514c5047f10097c76fd14c54eeba5dd}{{4.1.2.2}{8}{\texorpdfstring {buscar\+\_\+dato()}{buscar\_dato()}}{subsubsection.4.1.2.2}{}}
\@writefile{toc}{\contentsline {subsubsection}{\numberline {4.1.2.3}crear\discretionary {\unhbox \voidb@x \hbox {\relax \fontsize  {7}{8}\selectfont  $\leftarrow \joinrel  \rhook $}}{}{}\_\discretionary {\unhbox \voidb@x \hbox {\relax \fontsize  {7}{8}\selectfont  $\leftarrow \joinrel  \rhook $}}{}{}lista()}{9}{subsubsection.4.1.2.3}}
\newlabel{lista_8h_a2d66364e8ced797ef46f2ffd38c10a49}{{4.1.2.3}{9}{\texorpdfstring {crear\+\_\+lista()}{crear\_lista()}}{subsubsection.4.1.2.3}{}}
\@writefile{toc}{\contentsline {subsubsection}{\numberline {4.1.2.4}eliminar\discretionary {\unhbox \voidb@x \hbox {\relax \fontsize  {7}{8}\selectfont  $\leftarrow \joinrel  \rhook $}}{}{}\_\discretionary {\unhbox \voidb@x \hbox {\relax \fontsize  {7}{8}\selectfont  $\leftarrow \joinrel  \rhook $}}{}{}elemento\discretionary {\unhbox \voidb@x \hbox {\relax \fontsize  {7}{8}\selectfont  $\leftarrow \joinrel  \rhook $}}{}{}\_\discretionary {\unhbox \voidb@x \hbox {\relax \fontsize  {7}{8}\selectfont  $\leftarrow \joinrel  \rhook $}}{}{}lista()}{9}{subsubsection.4.1.2.4}}
\newlabel{lista_8h_a8999615d2b7f337560aa9180c398d858}{{4.1.2.4}{9}{\texorpdfstring {eliminar\+\_\+elemento\+\_\+lista()}{eliminar\_elemento\_lista()}}{subsubsection.4.1.2.4}{}}
\@writefile{toc}{\contentsline {subsubsection}{\numberline {4.1.2.5}eliminar\discretionary {\unhbox \voidb@x \hbox {\relax \fontsize  {7}{8}\selectfont  $\leftarrow \joinrel  \rhook $}}{}{}\_\discretionary {\unhbox \voidb@x \hbox {\relax \fontsize  {7}{8}\selectfont  $\leftarrow \joinrel  \rhook $}}{}{}lista()}{9}{subsubsection.4.1.2.5}}
\newlabel{lista_8h_afea200a466fb372996bb6dec02f057ee}{{4.1.2.5}{9}{\texorpdfstring {eliminar\+\_\+lista()}{eliminar\_lista()}}{subsubsection.4.1.2.5}{}}
\@writefile{toc}{\contentsline {subsubsection}{\numberline {4.1.2.6}imprimir\discretionary {\unhbox \voidb@x \hbox {\relax \fontsize  {7}{8}\selectfont  $\leftarrow \joinrel  \rhook $}}{}{}\_\discretionary {\unhbox \voidb@x \hbox {\relax \fontsize  {7}{8}\selectfont  $\leftarrow \joinrel  \rhook $}}{}{}lista()}{9}{subsubsection.4.1.2.6}}
\newlabel{lista_8h_a36af668e6cdb32c040b56963e82dd408}{{4.1.2.6}{9}{\texorpdfstring {imprimir\+\_\+lista()}{imprimir\_lista()}}{subsubsection.4.1.2.6}{}}
\@writefile{toc}{\contentsline {subsubsection}{\numberline {4.1.2.7}vaciar\discretionary {\unhbox \voidb@x \hbox {\relax \fontsize  {7}{8}\selectfont  $\leftarrow \joinrel  \rhook $}}{}{}\_\discretionary {\unhbox \voidb@x \hbox {\relax \fontsize  {7}{8}\selectfont  $\leftarrow \joinrel  \rhook $}}{}{}lista()}{10}{subsubsection.4.1.2.7}}
