\contentsline {chapter}{\numberline {1}Data Structure Index}{1}{chapter.1}
\contentsline {section}{\numberline {1.1}Data Structures}{1}{section.1.1}
\contentsline {chapter}{\numberline {2}File Index}{3}{chapter.2}
\contentsline {section}{\numberline {2.1}File List}{3}{section.2.1}
\contentsline {chapter}{\numberline {3}Data Structure Documentation}{5}{chapter.3}
\contentsline {section}{\numberline {3.1}lista Struct Reference}{5}{section.3.1}
\contentsline {section}{\numberline {3.2}posicion Struct Reference}{5}{section.3.2}
\contentsline {subsection}{\numberline {3.2.1}Detailed Description}{5}{subsection.3.2.1}
\contentsline {chapter}{\numberline {4}File Documentation}{7}{chapter.4}
\contentsline {section}{\numberline {4.1}lista.\discretionary {\unhbox \voidb@x \hbox {\relax \fontsize {7}{8}\selectfont $\leftarrow \joinrel \rhook $}}{}{}h File Reference}{7}{section.4.1}
\contentsline {subsection}{\numberline {4.1.1}Detailed Description}{8}{subsection.4.1.1}
\contentsline {subsection}{\numberline {4.1.2}Function Documentation}{8}{subsection.4.1.2}
\contentsline {subsubsection}{\numberline {4.1.2.1}agregar\discretionary {\unhbox \voidb@x \hbox {\relax \fontsize {7}{8}\selectfont $\leftarrow \joinrel \rhook $}}{}{}\_\discretionary {\unhbox \voidb@x \hbox {\relax \fontsize {7}{8}\selectfont $\leftarrow \joinrel \rhook $}}{}{}elemento()}{8}{subsubsection.4.1.2.1}
\contentsline {subsubsection}{\numberline {4.1.2.2}buscar\discretionary {\unhbox \voidb@x \hbox {\relax \fontsize {7}{8}\selectfont $\leftarrow \joinrel \rhook $}}{}{}\_\discretionary {\unhbox \voidb@x \hbox {\relax \fontsize {7}{8}\selectfont $\leftarrow \joinrel \rhook $}}{}{}dato()}{8}{subsubsection.4.1.2.2}
\contentsline {subsubsection}{\numberline {4.1.2.3}crear\discretionary {\unhbox \voidb@x \hbox {\relax \fontsize {7}{8}\selectfont $\leftarrow \joinrel \rhook $}}{}{}\_\discretionary {\unhbox \voidb@x \hbox {\relax \fontsize {7}{8}\selectfont $\leftarrow \joinrel \rhook $}}{}{}lista()}{9}{subsubsection.4.1.2.3}
\contentsline {subsubsection}{\numberline {4.1.2.4}eliminar\discretionary {\unhbox \voidb@x \hbox {\relax \fontsize {7}{8}\selectfont $\leftarrow \joinrel \rhook $}}{}{}\_\discretionary {\unhbox \voidb@x \hbox {\relax \fontsize {7}{8}\selectfont $\leftarrow \joinrel \rhook $}}{}{}elemento\discretionary {\unhbox \voidb@x \hbox {\relax \fontsize {7}{8}\selectfont $\leftarrow \joinrel \rhook $}}{}{}\_\discretionary {\unhbox \voidb@x \hbox {\relax \fontsize {7}{8}\selectfont $\leftarrow \joinrel \rhook $}}{}{}lista()}{9}{subsubsection.4.1.2.4}
\contentsline {subsubsection}{\numberline {4.1.2.5}eliminar\discretionary {\unhbox \voidb@x \hbox {\relax \fontsize {7}{8}\selectfont $\leftarrow \joinrel \rhook $}}{}{}\_\discretionary {\unhbox \voidb@x \hbox {\relax \fontsize {7}{8}\selectfont $\leftarrow \joinrel \rhook $}}{}{}lista()}{9}{subsubsection.4.1.2.5}
\contentsline {subsubsection}{\numberline {4.1.2.6}imprimir\discretionary {\unhbox \voidb@x \hbox {\relax \fontsize {7}{8}\selectfont $\leftarrow \joinrel \rhook $}}{}{}\_\discretionary {\unhbox \voidb@x \hbox {\relax \fontsize {7}{8}\selectfont $\leftarrow \joinrel \rhook $}}{}{}lista()}{9}{subsubsection.4.1.2.6}
\contentsline {subsubsection}{\numberline {4.1.2.7}vaciar\discretionary {\unhbox \voidb@x \hbox {\relax \fontsize {7}{8}\selectfont $\leftarrow \joinrel \rhook $}}{}{}\_\discretionary {\unhbox \voidb@x \hbox {\relax \fontsize {7}{8}\selectfont $\leftarrow \joinrel \rhook $}}{}{}lista()}{10}{subsubsection.4.1.2.7}
